#
# DSP
# Digital Storm Total Accumulation
# 0 to 255
#
Color,0,0,0,0
Color,16,0,50,200
Color,32,0,110,255
Color,48,128,224,80
Color,64,100,184,64
Color,80,72,144,48
Color,96,16,64,16
Color,97,250,240,140
Color,112,250,240,0
Color,128,240,128,32
#Color,128,255,165,0
Color,144,240,16,32
#Color,160,134,0,0
Color,176,196,42,128
#Color,192,115,0,155
Color,208,190,190,190
Color,224,230,230,230
Color,240,255,255,255
Color,255,255,255,255
